[[["Q", "W", "E", "R", "T", "Y", "U", "I", "O", "P"],
  ["A", "S", "D", "F", "G", "H", "J", "K", "L", "SEMICOLON"],
  ["Z", "X", "C", "V", "B", "ALT", "N", "M", "COMMA", "PERIOD", "SLASH"],
  ["ESC", ["layer", 2], "GUI", "SHIFT", "BACKSPACE", "CTRL",
   "SPACE", "FN", "QUOTE", "LEFT_BRACE", "ENTER"]],
 [[["shift", "1"], ["shift", "2"], ["shift", "MINUS"], ["shift", "EQUAL"],
   ["shift", "BACKSLASH"], "PAGE_UP", "7", "8", "9", ["shift", "8"]],
  [["shift", "3"], ["shift", "4"], ["shift", "9"], ["shift", "0"],
  "TILDE", "PAGE_DOWN", "4", "5", "6", ["shift", "RIGHT_BRACE"]],
  [["shift", "5"], ["shift", "6"], "MINUS", "EQUAL", ["shift", "TILDE"],
   "ALT", "BACKSLASH", "1", "2", "3", ["shift", "LEFT_BRACE"]],
  ["TAB", ["shift", "INSERT"], "GUI", "SHIFT", "BACKSPACE", "CTRL",
   "SPACE", "FN", "PERIOD", "0", "RIGHT_BRACE"]],
 [["HOME", "UP", "END", "INSERT", "", "", "F7", "F8", "F9", "F10"],
  ["LEFT", "DOWN", "RIGHT", "DELETE", "", "", "F4", "F5", "F6", "F11"],
  ["", "", "", "", "", "ALT", "", "F1", "F2", "F3", "F12"],
  [["reset"], "", "GUI", "SHIFT", "BACKSPACE", "CTRL",
   "SPACE", ["layer", 0], "", "", ""]]]

/* softdvorak.json

   Rather than implementing dvorak in the keyboard itself, I prefer to
   have it done in the OS; that way I can fall back to my laptop's
   internal keyboard without monkeying with keyboard settings. But it
   requires inverting the dvorak conversion for punctuation in a way
   that assumes the keycode will be translated into the proper one by the OS.

 */
